# Blender v2.55 (sub 0) OBJ File: 'WoodenBoxOpen02.blend'
# www.blender.org
mtllib WoodenBoxOpen02.mtl
o WoodenBox_Cube
v 0.446246 -0.444325 -0.446246
v 0.446246 -0.444325 0.446246
v -0.446246 -0.444325 0.446246
v -0.446246 -0.444325 -0.446247
v -0.446246 0.446247 -0.444325
v -0.446246 -0.446246 -0.444325
v 0.446246 -0.446246 -0.444325
v 0.446246 0.446247 -0.444325
v -0.444325 0.446247 -0.446246
v -0.444325 -0.446246 -0.446246
v -0.444325 -0.446246 0.446247
v -0.444325 0.446247 0.446246
v 0.446246 0.446247 0.444325
v 0.446247 -0.446246 0.444325
v -0.446246 -0.446246 0.444325
v -0.446246 0.446247 0.444325
v 0.444325 0.446247 0.446246
v 0.444325 -0.446246 0.446246
v 0.444325 -0.446246 -0.446247
v 0.444325 0.446247 -0.446246
v -0.396339 -0.439223 0.452592
v 0.440717 0.396148 0.452592
v 0.440717 0.396148 0.470773
v -0.396339 -0.439223 0.470773
v -0.399359 -0.435485 0.475319
v 0.437697 0.399885 0.475319
v 0.401460 0.444730 0.475319
v -0.435596 -0.390640 0.475319
v -0.438616 -0.386903 0.470773
v 0.398440 0.448467 0.470773
v 0.398440 0.448467 0.452592
v -0.438616 -0.386903 0.452592
v 0.452592 -0.386903 0.438616
v 0.452592 0.448467 -0.398440
v 0.470773 0.448467 -0.398440
v 0.470773 -0.386903 0.438616
v 0.475319 -0.390640 0.435596
v 0.475319 0.444730 -0.401460
v 0.475319 0.399885 -0.437697
v 0.475319 -0.435485 0.399359
v 0.470773 -0.439223 0.396339
v 0.470773 0.396148 -0.440717
v 0.452592 0.396148 -0.440717
v 0.452592 -0.439223 0.396339
v 0.396339 -0.439223 -0.452592
v -0.440717 0.396148 -0.452592
v -0.440717 0.396148 -0.470773
v 0.396339 -0.439223 -0.470773
v 0.399359 -0.435485 -0.475319
v -0.437697 0.399885 -0.475319
v -0.401460 0.444730 -0.475319
v 0.435596 -0.390640 -0.475319
v 0.438615 -0.386903 -0.470773
v -0.398440 0.448467 -0.470773
v -0.398440 0.448467 -0.452592
v 0.438615 -0.386903 -0.452592
v -0.452592 -0.386903 -0.438615
v -0.452592 0.448467 0.398440
v -0.470773 0.448467 0.398440
v -0.470773 -0.386903 -0.438615
v -0.475319 -0.390640 -0.435595
v -0.475319 0.444730 0.401460
v -0.475319 0.399885 0.437697
v -0.475319 -0.435485 -0.399359
v -0.470773 -0.439223 -0.396339
v -0.470773 0.396148 0.440717
v -0.452592 0.396148 0.440717
v -0.452592 -0.439223 -0.396339
v 0.454545 -0.459008 -0.454545
v 0.454545 -0.459008 0.454545
v -0.454545 -0.459008 0.454545
v -0.454545 -0.459008 -0.454546
v 0.454546 0.459008 -0.454545
v 0.454545 0.459008 0.454546
v -0.454546 0.459008 0.454545
v -0.454545 0.459008 -0.454545
v 0.427273 0.408798 0.411068
v -0.427273 0.408798 0.411068
v 0.427273 -0.408797 0.411068
v -0.427273 -0.408797 0.411068
v 0.427273 0.408797 -0.411068
v -0.427273 0.408797 -0.411068
v 0.427273 -0.408798 -0.411068
v -0.427273 -0.408798 -0.411068
v 0.481818 0.408797 -0.411068
v -0.481818 0.408797 -0.411068
v 0.481818 -0.408798 -0.411068
v -0.481818 -0.408798 -0.411068
v 0.481818 0.408798 0.411068
v -0.481818 0.408798 0.411068
v 0.481818 -0.408797 0.411069
v -0.481818 -0.408797 0.411069
v 0.427273 0.488797 -0.411069
v -0.427273 0.488797 -0.411069
v 0.427273 -0.488797 -0.411069
v -0.427273 -0.488797 -0.411068
v 0.427273 0.488797 0.411068
v -0.427273 0.488797 0.411068
v 0.427273 -0.488797 0.411068
v -0.427273 -0.488797 0.411069
v 0.481818 0.488797 0.411069
v -0.481818 0.488797 0.411069
v 0.481818 -0.488797 0.411069
v -0.481818 -0.488797 0.411069
v 0.481818 0.488797 -0.411068
v -0.481818 0.488797 -0.411068
v 0.481818 -0.488797 -0.411068
v -0.481818 -0.488797 -0.411068
v 0.490909 0.418797 0.411068
v -0.490909 0.418797 0.411069
v 0.490909 -0.418797 0.411069
v -0.490909 -0.418797 0.411069
v 0.490909 0.418797 -0.411068
v -0.490909 0.418797 -0.411068
v 0.490909 -0.418797 -0.411068
v -0.490909 -0.418797 -0.411068
v 0.490909 0.478797 -0.411068
v -0.490909 0.478797 -0.411068
v 0.490909 -0.478797 -0.411068
v -0.490909 -0.478797 -0.411068
v 0.490909 0.478797 0.411069
v -0.490909 0.478797 0.411069
v 0.490909 -0.478797 0.411069
v -0.490909 -0.478797 0.411069
v 0.418182 0.478797 0.411068
v -0.418182 0.478797 0.411068
v 0.418182 -0.478797 0.411068
v -0.418182 -0.478797 0.411068
v 0.418182 0.478797 -0.411069
v -0.418182 0.478797 -0.411069
v 0.418182 -0.478797 -0.411069
v -0.418182 -0.478797 -0.411069
v 0.418182 0.418797 -0.411069
v -0.418182 0.418797 -0.411068
v 0.418182 -0.418797 -0.411068
v -0.418182 -0.418797 -0.411068
v 0.418182 0.418797 0.411068
v -0.418182 0.418797 0.411068
v 0.418182 -0.418797 0.411068
v -0.418182 -0.418797 0.411068
v -0.411068 0.408798 0.427273
v -0.411068 0.408797 -0.427273
v -0.411068 -0.408797 0.427273
v -0.411068 -0.408798 -0.427273
v 0.411068 0.408798 0.427273
v 0.411068 0.408797 -0.427273
v 0.411068 -0.408797 0.427273
v 0.411068 -0.408798 -0.427273
v 0.411068 0.408798 0.481818
v 0.411068 0.408797 -0.481818
v 0.411068 -0.408797 0.481818
v 0.411068 -0.408798 -0.481818
v -0.411068 0.408798 0.481818
v -0.411068 0.408797 -0.481818
v -0.411068 -0.408797 0.481818
v -0.411068 -0.408798 -0.481818
v 0.411069 0.488797 0.427273
v 0.411069 0.488797 -0.427273
v 0.411069 -0.488797 0.427273
v 0.411069 -0.488797 -0.427273
v -0.411068 0.488797 0.427273
v -0.411068 0.488797 -0.427273
v -0.411068 -0.488797 0.427273
v -0.411068 -0.488797 -0.427273
v -0.411069 0.488797 0.481818
v -0.411069 0.488797 -0.481818
v -0.411069 -0.488797 0.481818
v -0.411069 -0.488797 -0.481818
v 0.411068 0.488797 0.481818
v 0.411068 0.488797 -0.481818
v 0.411068 -0.488797 0.481818
v 0.411068 -0.488797 -0.481818
v -0.411069 0.418797 0.490909
v -0.411069 0.418797 -0.490909
v -0.411069 -0.418797 0.490909
v -0.411069 -0.418797 -0.490909
v 0.411068 0.418797 0.490909
v 0.411068 0.418797 -0.490909
v 0.411068 -0.418797 0.490909
v 0.411068 -0.418797 -0.490909
v 0.411068 0.478797 0.490909
v 0.411068 0.478797 -0.490909
v 0.411068 -0.478797 0.490909
v 0.411068 -0.478797 -0.490909
v -0.411069 0.478797 0.490909
v -0.411069 0.478797 -0.490909
v -0.411069 -0.478797 0.490909
v -0.411069 -0.478797 -0.490909
v -0.411068 0.478797 0.418182
v -0.411068 0.478797 -0.418182
v -0.411068 -0.478797 0.418182
v -0.411068 -0.478797 -0.418182
v 0.411069 0.478797 0.418182
v 0.411069 0.478797 -0.418182
v 0.411069 -0.478797 0.418182
v 0.411069 -0.478797 -0.418182
v 0.411068 0.418797 0.418182
v 0.411068 0.418797 -0.418182
v 0.411068 -0.418797 0.418182
v 0.411068 -0.418797 -0.418182
v -0.411068 0.418797 0.418182
v -0.411068 0.418797 -0.418182
v -0.411068 -0.418797 0.418182
v -0.411068 -0.418797 -0.418182
v -0.418182 -0.500000 0.418182
v -0.418182 -0.500000 -0.418182
v 0.418182 -0.500000 0.418182
v 0.418182 -0.500000 -0.418182
v -0.418182 -0.500000 0.490909
v -0.418182 -0.500000 -0.490909
v 0.418182 -0.500000 0.490909
v 0.418182 -0.500000 -0.490909
v -0.490909 -0.500000 0.490909
v -0.490909 -0.500000 -0.490909
v 0.490909 -0.500000 0.490909
v 0.490909 -0.500000 -0.490909
v -0.490909 -0.500000 0.418182
v -0.490909 -0.500000 -0.418182
v 0.490909 -0.500000 0.418182
v 0.490909 -0.500000 -0.418182
v -0.418182 0.500000 0.418182
v -0.418182 0.500000 -0.418182
v 0.418182 0.500000 0.418182
v 0.418182 0.500000 -0.418182
v -0.490909 0.500000 0.418182
v -0.490909 0.500000 -0.418182
v 0.490909 0.500000 0.418182
v 0.490909 0.500000 -0.418182
v -0.490909 0.500000 0.490909
v -0.490909 0.500000 -0.490909
v 0.490909 0.500000 0.490909
v 0.490909 0.500000 -0.490909
v -0.418182 0.500000 0.490909
v -0.418182 0.500000 -0.490909
v 0.418182 0.500000 0.490909
v 0.418182 0.500000 -0.490909
v -0.409091 -0.490000 0.418182
v -0.409091 -0.490000 -0.418182
v 0.409091 -0.490000 0.418182
v 0.409091 -0.490000 -0.418182
v -0.409091 0.490000 0.418182
v -0.409091 0.490000 -0.418182
v 0.409091 0.490000 0.418182
v 0.409091 0.490000 -0.418182
v -0.409091 0.490000 0.490909
v -0.409091 0.490000 -0.490909
v 0.409091 0.490000 0.490909
v 0.409091 0.490000 -0.490909
v -0.409091 -0.490000 0.490909
v -0.409091 -0.490000 -0.490909
v 0.409091 -0.490000 0.490909
v 0.409091 -0.490000 -0.490909
v -0.418182 -0.490000 0.500000
v -0.418182 -0.490000 -0.500000
v 0.418182 -0.490000 0.500000
v 0.418182 -0.490000 -0.500000
v -0.418182 0.490000 0.500000
v -0.418182 0.490000 -0.500000
v 0.418182 0.490000 0.500000
v 0.418182 0.490000 -0.500000
v -0.490909 0.490000 0.500000
v -0.490909 0.490000 -0.500000
v 0.490909 0.490000 0.500000
v 0.490909 0.490000 -0.500000
v -0.490909 -0.490000 0.500000
v -0.490909 -0.490000 -0.500000
v 0.490909 -0.490000 0.500000
v 0.490909 -0.490000 -0.500000
v -0.500000 -0.490000 0.490909
v -0.500000 -0.490000 -0.490909
v 0.500000 -0.490000 0.490909
v 0.500000 -0.490000 -0.490909
v -0.500000 0.490000 0.490909
v -0.500000 0.490000 -0.490909
v 0.500000 0.490000 0.490909
v 0.500000 0.490000 -0.490909
v -0.500000 0.490000 0.418182
v -0.500000 0.490000 -0.418182
v 0.500000 0.490000 0.418182
v 0.500000 0.490000 -0.418182
v -0.500000 -0.490000 0.418182
v -0.500000 -0.490000 -0.418182
v 0.500000 -0.490000 0.418182
v 0.500000 -0.490000 -0.418182
v -0.418182 0.490000 0.409091
v -0.418182 0.490000 -0.409091
v 0.418182 0.490000 0.409091
v 0.418182 0.490000 -0.409091
v -0.418182 -0.490000 0.409091
v -0.418182 -0.490000 -0.409091
v 0.418182 -0.490000 0.409091
v 0.418182 -0.490000 -0.409091
v -0.490909 -0.490000 0.409091
v -0.490909 -0.490000 -0.409091
v 0.490909 -0.490000 0.409091
v 0.490909 -0.490000 -0.409091
v -0.490909 0.490000 0.409091
v -0.490909 0.490000 -0.409091
v 0.490909 0.490000 0.409091
v 0.490909 0.490000 -0.409091
vt 0.955537 0.585442
vt 0.089490 0.585442
vt 0.089490 0.012227
vt 0.955537 0.012227
vt 0.876740 0.659948
vt 0.010693 0.659948
vt 0.010692 0.086733
vt 0.876740 0.086733
vt 0.887997 0.659948
vt 0.021949 0.659948
vt 0.021949 0.086733
vt 0.887997 0.086733
vt 0.042708 0.977759
vt 0.957292 0.977759
vt 0.957292 0.372418
vt 0.042708 0.372418
vt 0.044463 0.794058
vt 0.910510 0.794058
vt 0.910510 0.220843
vt 0.044463 0.220843
vt 0.137431 0.122210
vt 0.974487 0.122210
vt 0.974487 0.110176
vt 0.137431 0.110176
vt 0.971922 0.552277
vt 0.046420 0.552208
vt 0.041706 0.522507
vt 0.967208 0.522575
vt 0.977237 0.107309
vt 0.140182 0.107309
vt 0.140182 0.095275
vt 0.977237 0.095275
vt 0.966815 0.520100
vt 0.041313 0.520031
vt 0.972315 0.554752
vt 0.046813 0.554684
vt 0.955354 0.597983
vt 0.955724 0.600356
vt 0.068843 0.599193
vt 0.068474 0.596820
vt 0.950548 0.567143
vt 0.950918 0.569515
vt 0.064037 0.568353
vt 0.063667 0.565980
vt 0.943447 0.826507
vt 0.106392 0.826507
vt 0.106392 0.814473
vt 0.943447 0.814473
vt 0.070370 0.833628
vt 0.907426 0.833628
vt 0.907426 0.821593
vt 0.070370 0.821593
vt 0.881930 0.914000
vt 0.044875 0.914000
vt 0.044875 0.926034
vt 0.881930 0.926034
vt 0.039660 0.268191
vt 0.962635 0.266876
vt 0.967244 0.237249
vt 0.044269 0.238564
vt 0.119571 0.906847
vt 0.956626 0.906848
vt 0.956626 0.918881
vt 0.119571 0.918882
vt 0.044654 0.236095
vt 0.967628 0.234780
vt 0.039276 0.270660
vt 0.962251 0.269345
vt 0.065001 0.458336
vt 0.064607 0.460813
vt 0.990824 0.460775
vt 0.991217 0.458298
vt 0.070113 0.426135
vt 0.069720 0.428612
vt 0.995936 0.428573
vt 0.996330 0.426096
vt 0.124093 0.197334
vt 0.961149 0.197334
vt 0.961149 0.209368
vt 0.124093 0.209369
vt 0.938635 0.723676
vt 0.101580 0.723676
vt 0.101580 0.735710
vt 0.938635 0.735710
vt 0.966928 0.699524
vt 0.966928 0.097820
vt 0.057837 0.097820
vt 0.057837 0.699524
vt 0.959048 0.333285
vt 0.959048 0.940896
vt 0.049957 0.940896
vt 0.049957 0.333285
vt 0.956797 0.275916
vt 0.956796 0.883527
vt 0.047706 0.883527
vt 0.047706 0.275916
vt 0.956797 0.883527
vt 0.091237 0.601720
vt 0.913374 0.601720
vt 0.913374 0.565618
vt 0.091237 0.565618
vt 0.908187 0.841792
vt 0.908187 0.805689
vt 0.086050 0.805689
vt 0.086050 0.841792
vt 0.893058 0.002283
vt 0.893058 0.038385
vt 0.070921 0.038385
vt 0.070921 0.002283
vt 0.045706 0.902010
vt 0.867842 0.902010
vt 0.867842 0.938113
vt 0.045705 0.938113
vt 0.063716 0.045198
vt 0.885853 0.045198
vt 0.885853 0.081300
vt 0.063716 0.081300
vt 0.903864 0.902010
vt 0.903864 0.938113
vt 0.081727 0.938113
vt 0.081727 0.902010
vt 0.922596 0.127554
vt 0.922595 0.091451
vt 0.100458 0.091451
vt 0.100459 0.127554
vt 0.118901 0.693781
vt 0.941038 0.693781
vt 0.941039 0.657679
vt 0.118902 0.657679
vt 0.794969 0.408575
vt 0.200420 0.408575
vt 0.200420 0.379856
vt 0.794969 0.379856
vt 0.180035 0.220001
vt 0.180035 0.190481
vt 0.791147 0.190481
vt 0.791147 0.220001
vt 0.200420 0.375070
vt 0.794969 0.375070
vt 0.180035 0.224920
vt 0.791147 0.224920
vt 0.200420 0.413362
vt 0.794969 0.413362
vt 0.791147 0.185562
vt 0.180035 0.185562
vt 0.180035 0.215831
vt 0.791147 0.215831
vt 0.791147 0.188995
vt 0.180035 0.188995
vt 0.794969 0.410021
vt 0.794969 0.383913
vt 0.200420 0.383913
vt 0.200420 0.410021
vt 0.440625 -0.051954
vt 0.370700 -0.051954
vt 0.370700 -0.019499
vt 0.440625 -0.019499
vt 0.344113 0.125459
vt 0.344113 0.093005
vt 0.274188 0.093005
vt 0.274188 0.125459
vt 0.066389 0.091207
vt 0.066389 0.123661
vt 0.136314 0.123661
vt 0.136314 0.091207
vt 0.170446 0.125187
vt 0.240370 0.125187
vt 0.240370 0.092732
vt 0.170446 0.092732
vt 0.036419 0.456575
vt 0.036419 0.424121
vt 0.106344 0.424120
vt 0.106344 0.456575
vt 0.910475 0.424120
vt 0.980400 0.424120
vt 0.980400 0.456575
vt 0.910475 0.456575
vt 0.203170 0.079410
vt 0.133245 0.079410
vt 0.133245 0.046956
vt 0.203170 0.046956
vt 0.975789 0.188863
vt 0.975789 0.221317
vt 0.905864 0.221317
vt 0.905864 0.188863
vt 0.957913 0.933412
vt 0.015680 0.933412
vt 0.015680 0.900958
vt 0.957913 0.900957
vt 0.037293 0.317447
vt 0.037293 0.284993
vt 0.979526 0.284993
vt 0.979526 0.317447
vt 0.037293 0.520251
vt 0.037293 0.552705
vt 0.979526 0.552705
vt 0.979526 0.520251
vt 0.972610 0.188863
vt 0.030377 0.188863
vt 0.030377 0.221317
vt 0.972610 0.221317
vt 0.965117 0.835660
vt 0.022885 0.835660
vt 0.022885 0.803206
vt 0.965117 0.803206
vt 0.037293 0.567553
vt 0.037293 0.600007
vt 0.979526 0.600007
vt 0.979526 0.567553
vt 0.032682 0.694339
vt 0.032682 0.661885
vt 0.974915 0.661885
vt 0.974915 0.694339
vt 0.972610 0.332295
vt 0.030377 0.332295
vt 0.030377 0.364750
vt 0.972610 0.364750
vt 0.971601 0.281832
vt 0.029368 0.281832
vt 0.029368 0.314287
vt 0.971601 0.314287
vt 0.033691 0.004136
vt 0.033691 0.036590
vt 0.975924 0.036590
vt 0.975924 0.004136
vt 0.033691 0.692609
vt 0.033691 0.660155
vt 0.975924 0.660155
vt 0.975924 0.692609
vt 0.970304 0.270145
vt 0.028072 0.270145
vt 0.028072 0.237691
vt 0.970304 0.237691
vt 0.022885 0.737909
vt 0.965117 0.737909
vt 0.965117 0.705454
vt 0.022885 0.705454
vt 0.983128 0.707838
vt 0.983128 0.740293
vt 0.040895 0.740293
vt 0.040895 0.707839
vt 0.961515 0.079506
vt 0.961515 0.047051
vt 0.019282 0.047051
vt 0.019282 0.079506
vt 0.033691 0.140035
vt 0.975924 0.140035
vt 0.975924 0.172489
vt 0.033691 0.172489
vt 0.027679 0.424121
vt 0.037293 0.424121
vt 0.037293 0.456575
vt 0.027679 0.456575
vt 0.032682 0.188863
vt 0.032682 0.221317
vt 0.023068 0.221317
vt 0.023068 0.188863
vt 0.037293 0.424120
vt 0.027679 0.424120
vt 0.979526 0.456575
vt 0.989140 0.456575
vt 0.989140 0.424120
vt 0.979526 0.424120
vt 0.018064 0.456575
vt 0.018064 0.424120
vt 0.013453 0.188863
vt 0.013453 0.221317
vt 0.974915 0.188863
vt 0.984529 0.188863
vt 0.984529 0.221317
vt 0.974915 0.221317
vt 0.018064 0.424121
vt 0.979526 0.420064
vt 0.037293 0.420064
vt 0.032682 0.225374
vt 0.974915 0.225374
vt 0.979526 0.460632
vt 0.037293 0.460632
vt 0.032682 0.184806
vt 0.974915 0.184806
vt 0.018064 0.420064
vt 0.013453 0.225374
vt 0.018064 0.460632
vt 0.013453 0.184806
usemtl Material_WoodPlanks_Color.jpg
s off
f 1/1 4/2 3/3 2/4
f 8/5 5/6 6/7 7/8
f 9/9 12/10 11/11 10/12
f 16/13 13/14 14/15 15/16
f 17/17 20/18 19/19 18/20
f 21/21 22/22 23/23 24/24
f 27/25 28/26 25/27 26/28
f 31/29 32/30 29/31 30/32
f 23/33 26/28 25/27 24/34
f 27/25 30/35 29/36 28/26
f 38/37 35/38 36/39 37/40
f 42/41 39/42 40/43 41/44
f 34/45 33/46 36/47 35/48
f 38/37 37/40 40/43 39/42
f 44/49 43/50 42/51 41/52
f 45/53 46/54 47/55 48/56
f 51/57 52/58 49/59 50/60
f 55/61 56/62 53/63 54/64
f 47/65 50/60 49/59 48/66
f 51/57 54/67 53/68 52/58
f 62/69 59/70 60/71 61/72
f 66/73 63/74 64/75 65/76
f 58/77 57/78 60/79 59/80
f 62/69 61/72 64/75 63/74
f 68/81 67/82 66/83 65/84
f 69/85 70/86 71/87 72/88
f 69/89 73/90 74/91 70/92
f 70/93 74/94 75/95 71/96
f 71/96 75/95 76/97 72/93
f 73/90 69/89 72/92 76/91
f 77/98 81/99 85/100 89/101
f 86/102 82/103 78/104 90/105
f 87/106 83/107 79/108 91/109
f 80/110 84/111 88/112 92/113
f 101/114 105/115 93/116 97/117
f 94/118 106/119 102/120 98/121
f 95/122 107/123 103/124 99/125
f 104/126 108/127 96/128 100/129
f 117/130 121/131 109/132 113/133
f 110/132 122/131 118/130 114/133
f 111/134 123/135 119/136 115/137
f 120/136 124/135 112/134 116/137
f 133/133 137/132 125/131 129/130
f 126/131 138/132 134/133 130/130
f 127/135 139/134 135/137 131/136
f 136/137 140/134 128/135 132/136
f 77/138 137/132 133/133 81/139
f 134/133 138/132 78/138 82/139
f 135/137 139/134 79/140 83/141
f 80/140 140/134 136/137 84/141
f 109/132 89/138 85/139 113/133
f 86/139 90/138 110/132 114/133
f 87/141 91/140 111/134 115/137
f 112/134 92/140 88/141 116/137
f 125/131 97/142 93/143 129/130
f 94/143 98/142 126/131 130/130
f 95/144 99/145 127/135 131/136
f 128/135 100/145 96/144 132/136
f 101/142 121/131 117/130 105/143
f 118/130 122/131 102/142 106/143
f 119/136 123/135 103/145 107/144
f 104/145 124/135 120/136 108/144
f 141/146 145/147 149/148 153/149
f 150/150 146/151 142/152 154/153
f 151/148 147/147 143/146 155/149
f 144/152 148/151 152/150 156/153
f 165/149 169/148 157/147 161/146
f 158/151 170/150 166/153 162/152
f 159/147 171/148 167/149 163/146
f 168/153 172/150 160/151 164/152
f 181/130 185/131 173/132 177/133
f 174/132 186/131 182/130 178/133
f 175/134 187/135 183/136 179/137
f 184/136 188/135 176/134 180/137
f 197/133 201/132 189/131 193/130
f 190/131 202/132 198/133 194/130
f 191/135 203/134 199/137 195/136
f 200/137 204/134 192/135 196/136
f 141/138 201/132 197/133 145/139
f 198/133 202/132 142/138 146/139
f 199/137 203/134 143/140 147/141
f 144/140 204/134 200/137 148/141
f 173/132 153/138 149/139 177/133
f 150/139 154/138 174/132 178/133
f 151/141 155/140 175/134 179/137
f 176/134 156/140 152/141 180/137
f 189/131 161/142 157/143 193/130
f 158/143 162/142 190/131 194/130
f 159/144 163/145 191/135 195/136
f 192/135 164/145 160/144 196/136
f 165/142 185/131 181/130 169/143
f 182/130 186/131 166/142 170/143
f 183/136 187/135 167/145 171/144
f 168/145 188/135 184/136 172/144
f 205/154 209/155 213/156 217/157
f 214/158 210/159 206/160 218/161
f 215/162 211/163 207/164 219/165
f 208/166 212/167 216/168 220/169
f 229/170 233/171 221/172 225/173
f 222/174 234/175 230/176 226/177
f 223/178 235/179 231/180 227/181
f 232/182 236/183 224/184 228/185
f 245/186 249/187 237/188 241/189
f 238/190 250/191 246/192 242/193
f 239/194 251/195 247/196 243/197
f 248/198 252/199 240/200 244/201
f 261/202 265/203 253/204 257/205
f 254/206 266/207 262/208 258/209
f 255/210 267/211 263/212 259/213
f 264/214 268/215 256/216 260/217
f 277/218 281/219 269/220 273/221
f 270/222 282/223 278/224 274/225
f 271/226 283/227 279/228 275/229
f 280/230 284/231 272/232 276/233
f 293/234 297/235 285/236 289/237
f 286/238 298/239 294/240 290/241
f 287/242 299/243 295/244 291/245
f 296/246 300/247 288/248 292/249
f 205/250 237/251 249/252 209/253
f 250/254 238/255 206/256 210/257
f 251/252 239/251 207/250 211/253
f 208/256 240/255 252/254 212/257
f 265/252 213/253 209/250 253/251
f 210/250 214/253 266/252 254/251
f 211/256 215/257 267/254 255/255
f 268/254 216/257 212/256 256/255
f 289/251 205/250 217/253 293/252
f 218/253 206/250 290/251 294/252
f 219/257 207/256 291/255 295/254
f 292/255 208/256 220/257 296/254
f 281/258 217/259 213/253 269/252
f 214/257 218/256 282/255 270/254
f 215/253 219/259 283/258 271/252
f 284/255 220/256 216/257 272/254
f 297/260 225/261 221/262 285/263
f 222/259 226/253 298/264 286/265
f 223/256 227/257 299/266 287/267
f 300/268 228/269 224/270 288/271
f 225/250 277/272 273/264 229/253
f 274/268 278/271 226/270 230/269
f 275/260 279/263 227/262 231/261
f 228/256 280/267 276/266 232/257
f 233/253 245/264 241/272 221/250
f 242/271 246/268 234/269 222/270
f 243/263 247/260 235/261 223/262
f 236/257 248/266 244/267 224/256
f 229/253 261/264 257/272 233/250
f 258/263 262/260 230/261 234/262
f 259/271 263/268 231/269 235/270
f 232/257 264/266 260/267 236/256
f 285/263 241/273 237/274 289/251
f 238/274 242/273 286/263 290/251
f 239/275 243/276 287/271 291/255
f 288/271 244/276 240/275 292/255
f 245/273 257/263 253/251 249/274
f 254/251 258/263 246/273 250/274
f 255/255 259/271 247/276 251/275
f 248/276 260/271 256/255 252/275
f 261/260 273/277 269/278 265/252
f 270/278 274/277 262/260 266/252
f 271/279 275/280 263/268 267/254
f 264/268 276/280 272/279 268/254
f 277/263 297/273 293/274 281/258
f 294/275 298/276 278/271 282/255
f 295/274 299/273 279/263 283/258
f 280/271 300/276 296/275 284/255
f 205/250 289/251 237/274
f 238/274 290/251 206/250
f 239/275 291/255 207/256
f 208/256 292/255 240/275
f 209/250 249/274 253/251
f 254/251 250/274 210/250
f 255/255 251/275 211/256
f 212/256 252/275 256/255
f 213/253 265/252 269/278
f 270/278 266/252 214/253
f 271/279 267/254 215/257
f 216/257 268/254 272/279
f 217/253 281/278 293/252
f 294/252 282/278 218/253
f 295/254 283/279 219/257
f 220/257 284/279 296/254
f 221/259 241/281 285/265
f 286/263 242/273 222/262
f 287/271 243/276 223/270
f 224/256 244/282 288/267
f 233/250 257/272 245/281
f 246/273 258/263 234/262
f 247/276 259/271 235/270
f 236/256 260/267 248/282
f 229/253 273/283 261/264
f 262/260 274/277 230/261
f 263/268 275/280 231/269
f 232/257 276/284 264/266
f 225/250 297/281 277/272
f 278/271 298/276 226/270
f 279/263 299/273 227/262
f 228/256 300/282 280/267
